{
  "id": "system-architecture-api-design",
  "title": "RESTful API Design: Best Practices and Patterns",
  "excerpt": "Design APIs that developers love to use. Learn REST principles, versioning strategies, error handling, and documentation best practices.",
  "date": "Dec 2023",
  "category": "System Architecture",
  "readTime": 11,
  "icon": "🏗️",
  "tags": ["API", "REST", "Design", "Best Practices"],
  "featured": false,
  "author": {
    "name": "Kamran Sohail",
    "role": "Software Engineer & Consultant",
    "avatar": "KS"
  },
  "content": "<h2>REST Fundamentals</h2><p>REST (Representational State Transfer) is an architectural style for designing networked applications. A well-designed REST API is intuitive, consistent, and a pleasure to work with.</p><h2>Resource Naming</h2><h3>Use Nouns, Not Verbs</h3><p>Resources should be named using nouns that represent entities:</p><pre><code>✓ GET /users\n✓ GET /users/123/orders\n✗ GET /getUsers\n✗ POST /createOrder</code></pre><h3>Use Plural Nouns</h3><p>Maintain consistency by always using plural nouns for collections:</p><pre><code>GET /users        # Get all users\nGET /users/123    # Get specific user\nPOST /users       # Create new user</code></pre><h3>Hierarchical Relationships</h3><p>Express relationships through URL hierarchy:</p><pre><code>GET /users/123/orders          # User's orders\nGET /users/123/orders/456      # Specific order\nGET /orders/456/items          # Order items</code></pre><h2>HTTP Methods</h2><ul><li><strong>GET:</strong> Retrieve resources (idempotent, safe)</li><li><strong>POST:</strong> Create new resources</li><li><strong>PUT:</strong> Replace entire resource (idempotent)</li><li><strong>PATCH:</strong> Partial update (not idempotent)</li><li><strong>DELETE:</strong> Remove resource (idempotent)</li></ul><h2>Status Codes</h2><h3>Success Codes</h3><ul><li><strong>200 OK:</strong> Successful GET, PUT, PATCH</li><li><strong>201 Created:</strong> Successful POST with resource creation</li><li><strong>204 No Content:</strong> Successful DELETE</li></ul><h3>Client Error Codes</h3><ul><li><strong>400 Bad Request:</strong> Invalid request syntax</li><li><strong>401 Unauthorized:</strong> Authentication required</li><li><strong>403 Forbidden:</strong> Authenticated but not authorized</li><li><strong>404 Not Found:</strong> Resource doesn't exist</li><li><strong>422 Unprocessable Entity:</strong> Validation errors</li></ul><h3>Server Error Codes</h3><ul><li><strong>500 Internal Server Error:</strong> Generic server error</li><li><strong>503 Service Unavailable:</strong> Server temporarily unavailable</li></ul><h2>Versioning Strategies</h2><h3>URL Path Versioning</h3><pre><code>GET /api/v1/users\nGET /api/v2/users</code></pre><h3>Header Versioning</h3><pre><code>GET /api/users\nAccept: application/vnd.myapi.v2+json</code></pre><h2>Pagination</h2><pre><code>GET /users?page=2&limit=20\n\n{\n  \"data\": [...],\n  \"pagination\": {\n    \"page\": 2,\n    \"limit\": 20,\n    \"total\": 150,\n    \"pages\": 8\n  }\n}</code></pre><h2>Error Response Format</h2><pre><code>{\n  \"error\": {\n    \"code\": \"VALIDATION_ERROR\",\n    \"message\": \"Validation failed\",\n    \"details\": [\n      {\n        \"field\": \"email\",\n        \"message\": \"Invalid email format\"\n      }\n    ]\n  }\n}</code></pre><h2>Documentation</h2><p>Use OpenAPI/Swagger to document your APIs. Include examples, authentication requirements, and rate limiting information.</p><h2>Conclusion</h2><p>A well-designed API is an investment that pays dividends in developer productivity and system maintainability. Follow these patterns consistently across your organization.</p>"
}
